<svg width="24" height="24" viewBox="0 0 24 24" fill="none" xmlns="http://www.w3.org/2000/svg">
<path d="M15.5402 16.3636C15.3691 16.3656 15.2002 16.3244 15.0493 16.2436L10.6857 14.0618C10.5058 13.9711 10.3545 13.8324 10.2486 13.661C10.1427 13.4897 10.0863 13.2923 10.0857 13.0909V7.63632C10.0857 7.34699 10.2006 7.06952 10.4052 6.86493C10.6098 6.66035 10.8873 6.54541 11.1766 6.54541C11.4659 6.54541 11.7434 6.66035 11.948 6.86493C12.1526 7.06952 12.2675 7.34699 12.2675 7.63632V12.4145L16.0311 14.3018C16.2881 14.4326 16.4828 14.6597 16.5727 14.9336C16.6627 15.2076 16.6405 15.506 16.5111 15.7636C16.4205 15.9435 16.2818 16.0948 16.1104 16.2007C15.939 16.3066 15.7417 16.363 15.5402 16.3636Z" fill="#C5C4FE"/>
<path d="M12.2614 4.68535e-06C10.4072 -0.00106982 8.57996 0.454315 6.93395 1.32771C5.28795 2.20111 3.87148 3.46689 2.80412 5.01819L1.73792 4.09091C1.58334 3.9625 1.39671 3.88093 1.19917 3.85546C1.00162 3.82998 0.801047 3.86161 0.620165 3.94677C0.439283 4.03192 0.285321 4.1672 0.175715 4.33728C0.066109 4.50736 0.00523941 4.70544 0 4.90909V8.72728C0 9.0166 0.112332 9.29408 0.312285 9.49866C0.512237 9.70325 0.783431 9.81818 1.06621 9.81818H5.33103C5.54747 9.81787 5.75869 9.75016 5.93661 9.62406C6.11453 9.49796 6.25074 9.31944 6.32711 9.11224C6.40349 8.90503 6.41642 8.67895 6.3642 8.46404C6.31197 8.24913 6.19705 8.05557 6.03473 7.90909L4.41409 6.45819C5.27998 5.14254 6.44837 4.06456 7.81662 3.31893C9.18488 2.5733 10.7111 2.18283 12.2614 2.18182C14.0208 2.18077 15.7467 2.67469 17.2503 3.60958C18.7539 4.54448 19.9774 5.88436 20.7869 7.48274C21.5964 9.08111 21.9608 10.8764 21.8403 12.6725C21.7198 14.4685 21.119 16.196 20.1036 17.6662C19.0882 19.1364 17.6973 20.2926 16.0829 21.0085C14.4685 21.7244 12.6929 21.9723 10.9501 21.7253C9.20724 21.4782 7.56436 20.7456 6.20104 19.6076C4.83771 18.4696 3.80643 16.97 3.21994 15.2727C3.17997 15.1292 3.11165 14.9957 3.01922 14.8803C2.92679 14.7649 2.81221 14.6701 2.68256 14.6018C2.55291 14.5336 2.41094 14.4932 2.26545 14.4833C2.11995 14.4734 1.97401 14.4941 1.83665 14.5442C1.6993 14.5943 1.57344 14.6727 1.46687 14.7745C1.36029 14.8763 1.27527 14.9994 1.21705 15.1362C1.15883 15.273 1.12865 15.4206 1.12838 15.5698C1.12811 15.719 1.15775 15.8666 1.21547 16.0036C1.93294 18.0778 3.19397 19.9103 4.86068 21.3006C6.52738 22.691 8.53561 23.5857 10.6658 23.887C12.796 24.1882 14.9661 23.8845 16.939 23.0089C18.9118 22.1333 20.6114 20.7196 21.8519 18.9223C23.0924 17.125 23.8261 15.0134 23.9727 12.8182C24.1193 10.6231 23.6733 8.42892 22.6833 6.47567C21.6933 4.52242 20.1975 2.88526 18.3595 1.74318C16.5214 0.601094 14.4118 -0.00193932 12.2614 4.68535e-06Z" fill="#C5C4FE"/>
</svg>
